LAB7
…
## # A tibble: 5 x 2
##   user       user_id  
##   <chr>      <chr>    
## 1 drewconway 5850692  
## 2 drewconway 132496568
## 3 drewconway 15276573 
## 4 drewconway 13524182 
## 5 drewconway 16039252

filter on the following user list

info.following=lookup_users(user.following$user_id)
info.following

## # A tibble: 297 x 88
##    user_id status_id created_at          screen_name text  source
##    <chr>   <chr>     <dttm>              <chr>       <chr> <chr> 
##  1 5850692 11011658 2019-02-28 17:02:54 Aaroth      "@ge Twitt
##  2 132496 11011803 2019-02-28 18:00:32 NewYorkSta Toda Twitt
##  3 152765 11011749 2019-02-28 17:39:02 drewharwell "A @ Tweet
##  4 135241 11011821 2019-02-28 18:07:28 daveweigel  I wa Twitt
##  5 160392 11011522 2019-02-28 16:08:47 pklinkne    @jon Twitt
##  6 235070 11004319 2019-02-26 16:26:32 stasavage   @jam Twitt
##  7 881321 11011390 2019-02-28 15:16:19 BackAftaTh @jbr Twitt
##  8 108347 11011719 2019-02-28 17:27:07 random_wal Exci Twitt
##  9 269349 11011807 2019-02-28 18:01:59 TheFFBalle MERC Twitt
## 10 902956 11004417 2019-02-26 17:05:40 HutchEleme A gl Twitt
## #  with 287 more rows, and 82 more variables: display_text_width <int>,
## #   reply_to_status_id <chr>, reply_to_user_id <chr>,
## #   reply_to_screen_name <chr>, is_quote <lgl>, is_retweet <lgl>,
## #   favorite_count <int>, retweet_count <int>, hashtags <list>,
## #   symbols <list>, urls_url <list>, urls_t.co <list>,
## #   urls_expanded_url <list>, media_url <list>, media_t.co <list>,
## #   media_expanded_url <list>, media_type <list>, ext_media_url <list>,
## #   ext_media_t.co <list>, ext_media_expanded_url <list>,
## #   ext_media_type <chr>, mentions_user_id <list>,
…
##choose the filtering criterion: description, verified (blue check mark), location
info.following%>%select(geo_coords,country,country_code,location)%>%lat_lng()

## # A tibble: 297 x 8
##    geo_coords country country_code location   lat   lng coords_coords
##    <list>     <chr>   <chr>        <chr>    <dbl> <dbl>         <dbl>
##  1 <dbl [2]>  <NA>    <NA>         Philade    NA    NA            NA
##  2 <dbl [2]>  <NA>    <NA>         New York    NA    NA            NA
##  3 <dbl [2]>  <NA>    <NA>         D.C.        NA    NA            NA
##  4 <dbl [2]>  <NA>    <NA>         Washing    NA    NA            NA
##  5 <dbl [2]>  <NA>    <NA>         ""          NA    NA            NA
##  6 <dbl [2]>  <NA>    <NA>         New Yor    NA    NA            NA
##  7 <dbl [2]>  <NA>    <NA>         ""          NA    NA            NA
##  8 <dbl [2]>  <NA>    <NA>         Princet    NA    NA            NA
##  9 <dbl [2]>  <NA>    <NA>         Phoenix    NA    NA            NA
## 10 <dbl [2]>  <NA>    <NA>         Pelham,    NA    NA            NA
## #  with 287 more rows, and 1 more variable: bbox_coords <dbl>
…
rate_limit("get_friends")

## # A tibble: 1 x 7
##   query limit remaining reset reset_at            timestamp           app  
##   <chr> <int>     <int> <tim> <dttm>              <dttm>              <chr>
## 1 frie    15        14 14.9 2019-02-28 13:29:23 2019-02-28 13:14:24 Test

get_friends(c("drewconway","BarackObama"))

## 1 friend networks collected!

## 2 friend networks collected!

## # A tibble: 5,297 x 2
##    user       user_id           
##    <chr>      <chr>             
##  1 drewconway 5850692           
##  2 drewconway 132496568         
##  3 drewconway 15276573          
##  4 drewconway 13524182          
##  5 drewconway 16039252          
##  6 drewconway 2350709449        
##  7 drewconway 881321968301223937
##  8 drewconway 10834752          
##  9 drewconway 2693496433        
## 10 drewconway 902956529590120451
## #  with 5,287 more rows
…
