LAB6
…
## opening file input connection.

## 
 Found 500 records...
 Found 1000 records...
 Found 1214 records...
 Imported 1214 records. Simplifying...

## closing file input connection.

djt1

## # A tibble: 1,214 x 88
##    user_id status_id created_at          screen_name text  source
##    <chr>   <chr>     <dttm>              <chr>       <chr> <chr> 
##  1 103984 10979161 2019-02-19 17:49:40 ThammuzB    "The Twitt
##  2 242128 10979161 2019-02-19 17:49:40 AliciaMtne Vox  Twitt
##  3 101308 10979161 2019-02-19 17:49:40 8Revolt     "@NB Twitt
##  4 101308 10979164 2019-02-19 17:51:04 8Revolt     "But Twitt
##  5 104693 10979161 2019-02-19 17:49:41 RegularGuy @nyt Twitt
##  6 998222 10979161 2019-02-19 17:49:40 kbrown65807 "Are Twitt
##  7 839153 10979161 2019-02-19 17:49:41 dumptrump1 @nyt Twitt
##  8 578340 10979161 2019-02-19 17:49:41 cannabislee Sham Twitt
##  9 302045 10979161 2019-02-19 17:49:41 lynn_weiser @MSN Twitt
## 10 302045 10979164 2019-02-19 17:50:51 lynn_weiser @Fra Twitt
## #  with 1,204 more rows, and 82 more variables: display_text_width <dbl>,
## #   reply_to_status_id <chr>, reply_to_user_id <chr>,
## #   reply_to_screen_name <chr>, is_quote <lgl>, is_retweet <lgl>,
## #   favorite_count <int>, retweet_count <int>, hashtags <list>,
## #   symbols <list>, urls_url <list>, urls_t.co <list>,
## #   urls_expanded_url <list>, media_url <list>, media_t.co <list>,
## #   media_expanded_url <list>, media_type <list>, ext_media_url <list>,
## #   ext_media_t.co <list>, ext_media_expanded_url <list>,
## #   ext_media_type <chr>, mentions_user_id <list>,
…
